{
    "id": "1",
    "customer-id": "1",
    "items": [
        {
            "product-id": "B102",
            "quantity": "10",
            "unit-price": "4.99",
            "total": "49.90"
        }
    ],
    "total": "49.90"
}
