{
    "id": "3",
    "customer-id": "3",
    "items": [
        {
            "product-id": "A101",
            "quantity": "2",
            "unit-price": "9.75",
            "total": "19.50"
        },
        {
            "product-id": "A102",
            "quantity": "1",
            "unit-price": "49.50",
            "total": "49.50"
        }
    ],
    "total": "69.00"
}
